<?xml version="1.0" encoding="UTF-8" standalone="no"?>
<!-- Created with Inkscape (http://www.inkscape.org/) -->

<svg
   width="15.59357mm"
   height="16.069881mm"
   viewBox="0 0 15.59357 16.069881"
   version="1.1"
   id="svg1"
   sodipodi:docname="awash.svg"
   inkscape:version="1.3 (0e150ed6c4, 2023-07-21)"
   xmlns:inkscape="http://www.inkscape.org/namespaces/inkscape"
   xmlns:sodipodi="http://sodipodi.sourceforge.net/DTD/sodipodi-0.dtd"
   xmlns="http://www.w3.org/2000/svg"
   xmlns:svg="http://www.w3.org/2000/svg">
  <sodipodi:namedview
     id="namedview1"
     pagecolor="#ffffff"
     bordercolor="#666666"
     borderopacity="1.0"
     inkscape:showpageshadow="2"
     inkscape:pageopacity="0.0"
     inkscape:pagecheckerboard="0"
     inkscape:deskcolor="#d1d1d1"
     inkscape:document-units="mm"
     inkscape:zoom="0.52025814"
     inkscape:cx="-391.15198"
     inkscape:cy="-320.9945"
     inkscape:window-width="2560"
     inkscape:window-height="1371"
     inkscape:window-x="0"
     inkscape:window-y="0"
     inkscape:window-maximized="1"
     inkscape:current-layer="layer1" />
  <defs
     id="defs1" />
  <g
     inkscape:label="Layer 1"
     inkscape:groupmode="layer"
     id="layer1"
     transform="translate(-108.21402,-93.13049)">
    <g
       id="g4028"
       transform="matrix(0.99906922,0,0,1.0416387,64.450186,-59.442105)">
      <circle
         style="fill:none;fill-opacity:1;stroke:#000000;stroke-width:0.565;stroke-linecap:round;stroke-linejoin:bevel;stroke-dasharray:0.0565, 3.39;stroke-dashoffset:0;stroke-opacity:1"
         id="path1015"
         cx="51.601162"
         cy="154.22455"
         r="7.5290403" />
      <g
         id="g4021"
         transform="translate(-0.77156467,-0.12602524)">
        <path
           id="path400"
           style="fill:none;stroke:#000000;stroke-width:0.865;stroke-linecap:butt;stroke-linejoin:miter;stroke-dasharray:none;stroke-opacity:1"
           sodipodi:type="inkscape:offset"
           inkscape:radius="0"
           inkscape:original="M 54.814453 150.34375 L 49.945312 158.2832 L 54.814453 150.34375 z "
           d="m 54.814453,150.34375 -4.869141,7.93945 z" />
        <path
           style="fill:none;stroke:#000000;stroke-width:0.865;stroke-linecap:butt;stroke-linejoin:miter;stroke-dasharray:none;stroke-opacity:1"
           d="m 54.638227,158.38612 -4.516018,-8.14544"
           id="path957" />
        <path
           style="fill:none;stroke:#000000;stroke-width:0.865;stroke-linecap:butt;stroke-linejoin:miter;stroke-dasharray:none;stroke-opacity:1"
           d="m 47.723448,154.32529 9.31354,-0.0238"
           id="path959" />
      </g>
    </g>
  </g>
</svg>
