<?xml version="1.0" encoding="UTF-8" standalone="no"?>
<!-- Created with Inkscape (http://www.inkscape.org/) -->

<svg
   version="1.1"
   id="svg1"
   width="50mm"
   height="50mm"
   viewBox="-3 -5 67.876482 67.876482"
   sodipodi:docname="wreck_with_depth_confirmed.svg"
   inkscape:version="1.3 (0e150ed6c4, 2023-07-21)"
   xml:space="preserve"
   xmlns:inkscape="http://www.inkscape.org/namespaces/inkscape"
   xmlns:sodipodi="http://sodipodi.sourceforge.net/DTD/sodipodi-0.dtd"
   xmlns="http://www.w3.org/2000/svg"
   xmlns:svg="http://www.w3.org/2000/svg"><defs
     id="defs1" /><sodipodi:namedview
     id="namedview1"
     pagecolor="#ffffff"
     bordercolor="#666666"
     borderopacity="1.0"
     inkscape:showpageshadow="2"
     inkscape:pageopacity="0.0"
     inkscape:pagecheckerboard="0"
     inkscape:deskcolor="#d1d1d1"
     showgrid="false"
     inkscape:zoom="2.3171876"
     inkscape:cx="83.074845"
     inkscape:cy="50.492243"
     inkscape:window-width="1280"
     inkscape:window-height="1371"
     inkscape:window-x="20"
     inkscape:window-y="20"
     inkscape:window-maximized="0"
     inkscape:current-layer="g1"
     inkscape:document-units="mm"
     showguides="false" /><g
     inkscape:groupmode="layer"
     inkscape:label="Image"
     id="g1"
     transform="translate(-233.35029,-246.42307)"><g
       id="g2"
       transform="matrix(1.1260171,0,0,1.1260171,-26.670679,-32.573307)"><circle
         style="fill:none;stroke:#000000;stroke-width:3.5;stroke-linecap:round;stroke-linejoin:bevel;stroke-dasharray:0, 7;stroke-dashoffset:0"
         id="path1"
         cx="258.77252"
         cy="271.84531"
         r="25.422234" /><path
         style="fill:none;stroke:#000000;stroke-width:1.61014;stroke-linecap:butt;stroke-linejoin:miter;stroke-dasharray:none;stroke-opacity:1"
         d="m 233.65713,295.10445 v 6.35799 h 50.23079 v -6.35799"
         id="path2"
         sodipodi:nodetypes="cccc" /></g></g></svg>
